^C:\USERS\AGS\SOURCE\REPOS\EXERCISE 3\EXERCISE 3\DEBUG\SOURCE.OBJ
C:\USERS\AGS\SOURCE\REPOS\EXERCISE 3\DEBUG\EXERCISE 3.EXE
C:\USERS\AGS\SOURCE\REPOS\EXERCISE 3\DEBUG\EXERCISE 3.ILK
C:\USERS\AGS\SOURCE\REPOS\EXERCISE 3\DEBUG\EXERCISE 3.PDB
