^C:\USERS\AGS\SOURCE\REPOS\QUIZ 1\QUIZ 1\DEBUG\SOURCE.OBJ
C:\USERS\AGS\SOURCE\REPOS\QUIZ 1\DEBUG\QUIZ 1.EXE
C:\USERS\AGS\SOURCE\REPOS\QUIZ 1\DEBUG\QUIZ 1.ILK
C:\USERS\AGS\SOURCE\REPOS\QUIZ 1\DEBUG\QUIZ 1.PDB
